{
  "$schema": "../node_modules/ng-packagr/ng-package.schema.json",
  "dest": "../dist/attache-messaging/",
  "lib": {
    "entryFile": "./app/index.ts"
  },
  "whitelistedNonPeerDependencies": [
    "guid-typescript",
    "@aspnet/signalr"
  ]
}